{
  "definitions": {
    "Property": {
      "type": "object",
      "properties": {
        "name": {
          "type": "string"
        },
        "isAttr": {
          "type": "boolean"
        },
        "minLength": {
          "type":  "number"
        },
        "type": {
          "type": "string"
        }
      },
      "required": ["name", "type", "isAttr", "minLength"]
    },
    "BaseClass": {
      "type": "object",
      "properties": {
        "name": {
          "type": "string"
        },
        "extends": {
          "type": "array",
          "items": {
            "type": "string"
        },
        "isAbstract": {
          "type": "boolean"
          },
          "properties": {
            "type": "array",
            "items": {"$ref": "#/definitions/Property"},
          }
        },
        "required": ["type", "properties", "items"]
      }
    }
  },
  "title": "metaModdle",
  "type": "object",
  "allOf": [
    { "$ref": "#/definitions/BaseClass" },
    {
      "properties": {
        "uri": {
          "type": "string",
          "title": "http://activiti.org/bpmn",
          "minLength": 1,
        },
        "prefix": {
          "type": "string",
          "title": "camunda",
          "minLength": 1,
        },
        "xml": {
          "type": "object"
        },
        "associations": {
          "type": "array",
        },
        "types": {
          "type": "array",
          "items": {
            "$ref": "#/definitions/Property"
          }
        }
      }
    }
  ]
}
